<svg xmlns="http://www.w3.org/2000/svg" width="19" height="13" viewBox="0 0 19 13">
  <path id="AC" d="M16.149,13H2.85A2.822,2.822,0,0,1,0,10.214V2.786A2.822,2.822,0,0,1,2.85,0h13.3A2.822,2.822,0,0,1,19,2.786v7.428A2.822,2.822,0,0,1,16.149,13ZM1.9,5.572v4.642a.941.941,0,0,0,.95.929h13.3a.941.941,0,0,0,.951-.929V5.572Zm.95-3.715a.941.941,0,0,0-.95.929v.928H17.1V2.786a.941.941,0,0,0-.951-.929Zm11.4,7.428h-1.9a.929.929,0,1,1,0-1.857h1.9a.929.929,0,1,1,0,1.857Zm-5.7,0H4.75a.929.929,0,1,1,0-1.857h3.8a.929.929,0,1,1,0,1.857Z" transform="translate(0 0)" fill="#1f8efa"/>
</svg>
