<svg id="Power_Outlet" data-name="Power Outlet" xmlns="http://www.w3.org/2000/svg" width="14.717" height="18.228" viewBox="0 0 14.717 18.228">
  <path id="Path_11" data-name="Path 11" d="M9.484,18.228H5.233a.283.283,0,0,1-.283-.282v-1.6H3.979A3.972,3.972,0,0,1,0,12.387v-4.8A1.192,1.192,0,0,1,1.194,6.4h.247V1.409A1.414,1.414,0,0,1,2.857,0h.093A1.414,1.414,0,0,1,4.366,1.409V6.4h5.985V1.409A1.414,1.414,0,0,1,11.767,0h.093a1.414,1.414,0,0,1,1.417,1.409V6.4h.25a1.191,1.191,0,0,1,1.19,1.188v4.8a3.972,3.972,0,0,1-3.978,3.957H9.767v1.6a.283.283,0,0,1-.283.282ZM5.516,16.343v1.321H9.2V16.343ZM1.194,6.96a.625.625,0,0,0-.625.625v4.8A3.407,3.407,0,0,0,3.981,15.78h6.758a3.406,3.406,0,0,0,3.412-3.393v-4.8a.625.625,0,0,0-.625-.625ZM11.767.563a.848.848,0,0,0-.848.845V6.4h1.792V1.409a.848.848,0,0,0-.85-.845Zm-8.911,0a.848.848,0,0,0-.85.845V6.4H3.8V1.409A.848.848,0,0,0,2.95.563Z" fill="#1f8efa"/>
  <path id="Path_12" data-name="Path 12" d="M.494,4.584a.315.315,0,0,1-.152-.038.27.27,0,0,1-.131-.337L.833,2.623.219,2.459a.292.292,0,0,1-.206-.187.265.265,0,0,1,.058-.263L1.8.1A.319.319,0,0,1,2.175.032a.272.272,0,0,1,.148.325l-.435,1.4.633.167a.292.292,0,0,1,.206.188.264.264,0,0,1-.059.263L.722,4.486a.31.31,0,0,1-.228.1Z" transform="translate(6.016 8.926)" fill="#1f8efa"/>
</svg>
